Dark Chocolate Delight,4.99,Dark,PIONIR,Bitter,100.0,A rich dark chocolate with a hint of bitterness.,dark_chocolate.jpg,true,50
White Chocolate Delight,4.99,White,NESTLE,Sour,100.0,A rich white chocolate with a hint of bitterness.,white_chocolate.jpg,true,50
Milk Chocolate Delight,4.99,Milk,Milka,Sweet,100.0,A rich milk chocolate with a hint of bitterness.,milk_chocolate.jpg,true,50
