tamaram,test123,Tamara,M,female,1985-05-23,MANAGER,false,NESTLE
tomom,test123,Tomo,M,male,1992-09-30,MANAGER,false,MILKA
bebik,test123,Bebi,K,male,1992-09-30,MANAGER,false,PIONIR
novim,test123,Novi,M,male,1992-09-30,MANAGER,false,""
